{
  "content": [
    {
      "name": "graue Recyclingkarte mit Mikroperforierung DIN lang",
      "orderId": "gr10x21grau-puzzle",
      "thumbSlug": "gr10x21grau-puzzle-gerissen-1200.jpg"
    },
    {
      "name": "braune Recycling-Klappkarte DIN lang (Muskat 350 g/qm)",
      "orderId": "gr10x21muskat",
      "thumbSlug": "gr10x21muskat.jpg"
    },
    {
      "name": "weiße Klappkarte mit Mikroperforierung DIN lang (Besuchskartenkarton 246 g/qm)",
      "orderId": "gr10x21opal-puzzle",
      "thumbSlug": "gr10x21opal-puzzle-gerissen.jpg\n"
    },
    {
      "name": "pinke Klappkarte DIN lang (GmundColors36, 200 g/qm)",
      "orderId": "gr10x21pink",
      "thumbSlug": "gr10x21pink-umschlag-1200.jpg"
    },
    {
      "name": "altweiße Klappkarte DIN lang (Munken Pure 300 g/qm)",
      "orderId": "gr10x21pure",
      "thumbSlug": "gr10x21pure-quer-1200.jpg"
    },
    {
      "name": "sandgraue Recycling-Klappkarte DIN lang (Maschinengraupappe ca. 350 g/qm)",
      "orderId": "gr10x21sandgrau",
      "thumbSlug": "gr10x21sandgrau.jpg"
    },
    {
      "name": "altweiße extralange Klappkarte DIN lang (Munken Pure 300 g/qm)",
      "orderId": "gr10x42pure",
      "thumbSlug": "gr10x42pure-1200.jpg"
    },
    {
      "name": "cremefarbene, gerippte Klappkarte 16,5 x 11,5 cm (Conqueror 220 g/qm)",
      "orderId": "gr11x16conq-creme",
      "thumbSlug": "gr11x16conq-creme-1200.jpg"
    },
    {
      "name": "weiße Klappkarte 16,5 x 11,5 cm (Besuchskartenkarton 246 g/qm)",
      "orderId": "gr11x16opal",
      "thumbSlug": "gr11x16opal-1200.jpg"
    },
    {
      "name": "sandgraue Recycling-Klappkarte DIN A5 (Maschinengraupappe ca. 350 g/qm)",
      "orderId": "grA5grau",
      "thumbSlug": "gra5grau-1200.jpg"
    },
    {
      "name": "weiße Klappkarte DIN A6 (Besuchskartenkarton 246 g/qm)",
      "orderId": "grA6opal",
      "thumbSlug": "gra6opal-1200.jpg"
    },
    {
      "name": "Recycling-Glückwunschkarte: Happy Birthday (hellgrüner Druck)",
      "orderId": "granpe002gruen-creme",
      "thumbSlug": "granpe002gruen-creme-umschlag.jpg"
    },
    {
      "name": "Recycling-Geburtstagskarte: Happy Birthday (roter Druck)",
      "orderId": "granpe002rot-creme",
      "thumbSlug": "granpe002rot-creme-umschlag.jpg"
    },
    {
      "name": "graue Recycling-Glückwunschkarte: Happy Birthday  (goldener Druck auf Graupappe)",
      "orderId": "granpe012gold-grau",
      "thumbSlug": "granpe012gold-grau-umschlag.jpg"
    },
    {
      "name": "entspannte Recycling-Grußkarte: Hängematte",
      "orderId": "granth001",
      "thumbSlug": "granth001-umschlaggobi.jpg"
    },
    {
      "name": "Recycling-Fußball-Karte: Freistoß",
      "orderId": "granth002",
      "thumbSlug": "granth002-1200.jpg"
    },
    {
      "name": "Fußball-Karte zum Basteln: Tooor!",
      "orderId": "granth003",
      "thumbSlug": "granth003-1200.jpg"
    },
    {
      "name": "Glückwunschkarte: Kleiner König (Herzlichen Glückwunsch!)",
      "orderId": "granth004",
      "thumbSlug": "granth004umschlaggruen.jpg"
    },
    {
      "name": "Recycling-Glückwunschkarte: Viel Glück (vierblättriges Kleeblatt)",
      "orderId": "granth005",
      "thumbSlug": "granth005-umschlagmuskat.jpg"
    },
    {
      "name": "Recycling-Grußkarte: Blumenmädchen",
      "orderId": "granth017",
      "thumbSlug": "granth017-umschlag-gobi-1200.jpg"
    },
    {
      "name": "Recycling-Geburtstagskarte: Alles Gute!",
      "orderId": "granth018",
      "thumbSlug": "granth018-1200.jpg"
    },
    {
      "name": "Recycling-Glückwunschkarte: Viel Glück (goldenes, vierblättriges Kleeblatt)",
      "orderId": "granth055grau",
      "thumbSlug": "granth055grau-1200.jpg"
    },
    {
      "name": "Recycling-Glückwunschkarte: Schwein mit Glücksklee",
      "orderId": "granth075",
      "thumbSlug": "granth075-umschlaggobi.jpg"
    },
    {
      "name": "grüne Osterkarte: springende Hasen",
      "orderId": "grasbe003gruen",
      "thumbSlug": "grasbe003gruen-1200.jpg"
    },
    {
      "name": "orange Osterkarte: springende Hasen",
      "orderId": "grasbe003orange",
      "thumbSlug": "grasbe003orange-1200.jpg"
    }
  ],
  "pageable": {
    "sort": {
      "sorted": false,
      "unsorted": true,
      "empty": true
    },
    "offset": 0,
    "pageNumber": 0,
    "pageSize": 25,
    "paged": true,
    "unpaged": false
  },
  "last": false,
  "totalPages": 19,
  "totalElements": 473,
  "size": 25,
  "number": 0,
  "sort": {
    "sorted": false,
    "unsorted": true,
    "empty": true
  },
  "first": true,
  "numberOfElements": 25,
  "empty": false
}